Social Media and Mental Health – My Site
…
# Summarize missing values
cat("Missing value summary:\n")

Missing value summary:

miss_summary <- miss_var_summary(smmh_data)
print(miss_summary)

# A tibble: 21 × 3
   variable                                                      n_miss pct_miss
   <chr>                                                          <int>    <num>
 1 Timestamp                                                          0        0
 2 1. What is your age?                                               0        0
 3 2. Gender                                                          0        0
 4 3. Relationship Status                                             0        0
 5 4. Occupation Status                                               0        0
 6 5. What type of organizations are you affiliated with?             0        0
 7 6. Do you use social media?                                        0        0
 8 7. What social media platforms do you commonly use?                0        0
 9 8. What is the average time you spend on social media every …      0        0
10 9. How often do you find yourself using Social media without…      0        0
# ℹ 11 more rows
…
